[
  {
    "id": 1,
    "title": "1",
    "width": 300,
    "height": 100,
    "active": false,
    "left" : 10,
    "top" : 10,
    "pinned": true,
    "layer": 1
  },
  {
    "id": 2,
    "title": "2",
    "width": 300,
    "height": 100,
    "active": false,
    "left" : 320,
    "top" : 10,
    "pinned": true,
    "layer": 2
  },
  {
    "id": 3,
    "title": "3",
    "width": 300,
    "height": 100,
    "active": true,
    "left" : 630,
    "top" : 10,
    "pinned": true,
    "layer": 3
  },
  {
    "id": 4,
    "title": "4",
    "width": 300,
    "height": 100,
    "active": false,
    "left" : 10,
    "top" :200,
    "pinned": true,
    "layer": 4
  },
  {
    "id": 5,
    "title": "5",
    "width": 300,
    "height": 100,
    "active": false,
    "left" : 320,
    "top" : 200,
    "pinned": true,
    "layer": 5
  }
]
